^C:\USERS\NATHAN\DOCUMENTS\MY DROPBOX\SE_PROJECT\PATSTRACKS\PATSTRACKS\PROPERTIES\RESOURCES.RESX
^C:\USERS\NATHAN\DROPBOX\SE_PROJECT\PATSTRACKS\PATSTRACKS\PROPERTIES\RESOURCES.RESX
^C:\USERS\NATHAN\DROPBOX\SE_PROJECT\PATSTRACKS\PATSTRACKS\FORM1.RESX
^C:\USERS\JORDAN\DROPBOX\SE_PROJECT\PATSTRACKS\PATSTRACKS\PROPERTIES\RESOURCES.RESX
^C:\USERS\SHAUN\DROPBOX\SE_PROJECT\PATSTRACKS\PATSTRACKS\FORM1.RESX
^C:\USERS\SHAUN\DROPBOX\SE_PROJECT\PATSTRACKS\PATSTRACKS\PROPERTIES\RESOURCES.RESX
^C:\USERS\JORDAN\DROPBOX\SE_PROJECT\PATSTRACKS\PATSTRACKS\FORM1.RESX
^C:\USERS\NATHAN\DOCUMENTS\MY DROPBOX\SE_PROJECT\PATSTRACKS\PATSTRACKS\FORM1.RESX
^C:\USERS\CRAIG\DROPBOX\SE_PROJECT\PATSTRACKS\PATSTRACKS\FORM1.RESX
^C:\USERS\CRAIG\DROPBOX\SE_PROJECT\PATSTRACKS\PATSTRACKS\PROPERTIES\RESOURCES.RESX
^C:\USERS\CRAIG\DESKTOP\SCHOOL FALL 2011\SOFTWARE ENGINEERING II\PAT'S TRACKS\PATSTRACKS\PATSTRACKS\PROPERTIES\RESOURCES.RESX
^C:\USERS\CRAIG\DESKTOP\SCHOOL FALL 2011\SOFTWARE ENGINEERING II\PAT'S TRACKS\PATSTRACKS\PATSTRACKS\FORM1.RESX
C:\WINDOWS\ASSEMBLY\PUBPOL18.DAT
C:\WINDOWS\MICROSOFT.NET\ASSEMBLY\GAC_MSIL\MICROSOFT.BUILD.TASKS.V4.0\V4.0_4.0.0.0__B03F5F7F11D50A3A\MICROSOFT.BUILD.TASKS.V4.0.DLL
